URL;Redirect
fullqurandownload.com;
facebook.com/imaginebreaker20;
facebook.com/sora.san212/photos/a.1597933303804434.1073741829.1566401166957648/1711485952449168/?type=3;
facebook.com/sora.san212/?hc_location=ufi;
facebook.com/sora.san212;
facebook.com/izayoi.bran040;
facebook.com/senpairikolino;
weibo.com;
xxxkasero.com;
deviantart.com/browse/all/photography/people/nude/?offset=62;
dineroen-30dias.com/flow/?campaign=1679&parameter=mscco1&key=&utp1=&utp2=&utp3=&utp4=;
trackingclick.net/d0973879-c17f-44c1-b8f4-f25f0d6b2c2a?countrycode=co&siteid=107&placementid=22884&campaignid=8611&browser=chrome&city={city}&randomvar=1834738287&adtype=pageunder;
notijoven.com/las-modelos-rusas-las-mas-guapas-del-mundo;
offer.alibaba.com/catalogs/products/cid39?tv=2&isfeature=true&imp=5b1e961an0o7cr1ticq&xp=upyrf-w4byfkg6n6o5vpb4his3e_wxgiqu26ctqz3lele4cqcwpe_dhj217xxroxpldycs5tukopjr_qj1iyb6bqk2rv8c6tk9j0hqugmw4&pid=107&td=siteid&aff_id=193365128&ct=2&size=300_250&cn=f6cb61ea-b8c6-455e-a2bc-636173ec8b71&an=1000000046001&bm=cpa&src=saf;
facebook.com/exen-742438965835887;
facebook.com/onii.sama.el.shidori;
facebook.com/glynplanxoficial/?fref=ts;
chrome-extension://gighmmpiobklfepjocnamgkkbiglidom/adblock-button-popup.html;
vda.gtarcade.com/?q=160626a6akiuw&sid=30024;
good-black4u.com/c20yofzms0zrmk5baghlr1qusjmxuamenxezdwlwbvadfmddqwekeenlqvvrqfkusjmvufpmigniaxlzqssxchasa1tvmxubrby4fhkxcha=;
facebook.com/sexy-asian-y-cosplay-girls-458653980906117;
facebook.com/uriko-nonomura-%e1%83%a6-%e1%85%9d-487356658066864;
facebook.com/kira-akasuna-776105359144348;
facebook.com/japon18.bygrayevans/?fref=ts;
facebook.com/galaxhentai;
facebook.com/vizardx;
facebook.com/hashtag/animeh?fref=ts;
pixiv.net;
cdn.discordapp.com/attachments/156603263523749888/210907586227077120/img_0744.jpg;
discordapp.com;
 www.4tube.com;
www.8teenxxx.com;
www.alotporn.com;
www.beeg.com;
www.bustnow.com;
www.cliphunter.com;
www.definebabes.com;
www.deviantclip.com;
www.drtuber.com;
www.empflix.com;
www.fantasti.cc;
www.fapdu.com;
www.freeporn.com;
www.freudbox.com;
www.fuq.com;
www.fux.com;
www.grayvee.com;
www.hellxx.com;
www.hustlertube.com;
www.jugy.com;
www.jizzhut.com;
www.kaktuz.com;
www.keezmovies.com;
www.kinxxx.com;
www.laraporn.com;
www.leakedporn.com;
www.lovelyclips.com;
www.lubetube.com;
www.mofosex.com;
www.monstertube.com;
www.madthumbs.com;
www.moviefap.com;
www.moviesand.com;
www.orgasm.com;
www.perfectgirls.net;
www.pichunter.com;
www.planetsuzy.com;
www.porn.com;
www.porn-plus.com;
www.porncor.com;
www.pornhub.com;
www.pornrabbit.com;
www.porntitan.com;
www.pussy.org;
www.redtube.com;
www.tube8.com;
www.xhamster.com;
www.xnxx.com;
www.xvideos.com;
www.youjizz.com;
www.jav.me;
javfor.me;
http://anime-gytareety.blogspot.com.co/;
