<?xml version="1.0" encoding="UTF-8" standalone="no"?>
<svg width="51px" height="50px" viewBox="0 0 51 50" version="1.1" xmlns="http://www.w3.org/2000/svg" xmlns:xlink="http://www.w3.org/1999/xlink" xmlns:sketch="http://www.bohemiancoding.com/sketch/ns">
    <!-- Generator: Sketch 3.3.3 (12081) - http://www.bohemiancoding.com/sketch -->
    <title>information32</title>
    <desc>Created with Sketch.</desc>
    <defs></defs>
    <g id="Page-1" stroke="none" stroke-width="1" fill="none" fill-rule="evenodd" sketch:type="MSPage">
        <g id="Artboard-1-Copy" sketch:type="MSArtboardGroup" transform="translate(-82.000000, -833.000000)" fill="#797979">
            <g id="Group" sketch:type="MSLayerGroup" transform="translate(-444.000000, 13.000000)">
                <g id="information32" transform="translate(526.500000, 820.000000)" sketch:type="MSShapeGroup">
                    <g id="Group">
                        <path d="M24.993,0.001 C11.2125,0.001 0,11.21175 0,24.992 C0,38.77325 11.21175,49.985 24.993,49.985 C38.77425,49.985 49.986,38.77325 49.986,24.992 C49.98575,11.21175 38.77325,0.001 24.993,0.001 L24.993,0.001 Z M24.993,47.73925 C12.451,47.73925 2.244,37.536 2.244,24.992 C2.244,12.449 12.451,2.244 24.993,2.244 C37.53675,2.244 47.74375,12.44825 47.74375,24.992 C47.74375,37.53575 37.53675,47.73925 24.993,47.73925 L24.993,47.73925 Z" id="Shape"></path>
                        <path d="M24.831,16.8385 C23.904,16.8385 23.14975,17.591 23.14975,18.5205 L23.14975,37.51525 C23.14975,38.44575 23.904,39.2 24.831,39.2 C25.7615,39.2 26.51575,38.44575 26.51575,37.51525 L26.51575,18.5205 C26.51575,17.591 25.7605,16.8385 24.831,16.8385 L24.831,16.8385 Z" id="Shape"></path>
                        <circle id="Oval" cx="24.9365" cy="12.17425" r="2.0445"></circle>
                    </g>
                </g>
            </g>
        </g>
    </g>
</svg>