Trusted Site,jkanime.net,metacert-block.com,kalafina-col.com.co,es.slideshare.net,dofus-touch.com,frozen-layer.com,fansshare.com,intlwota.com,akbzine.com,muycomputer.com,mixi.jp,librosysolucionarios.net,safedns.com,blade1.uniquindio.edu.co,legalitas.com,rigo-transporte.blogspot.com.co,actualicese.com,computacion.mercadolibre.com.co,tangara.uis.edu.co,blog.fc2.com,hikarinoakariost.info,bancopopular.com.co,laguiadelvaron.com,cacharrerosdelaweb.com,animeflv.net,dsants-subs.net,puya.se,detodouis.com,imgur.com,abcya.com,saberingles.com.ar,misiontokyo.com,gratisprogramas.biz,recursosarquitecturablog.wordpress.com,block.si,blogiswar.net,andro4all.com,sokonosekai.blogspot.com.co,xatakandroid.com,naukas.com,google.com.co,getpocket.com,youtube.com,elgenidiota.blogspot.com.co,es.wikipedia.org,dashboard.opendns.com,support.opendns.com,mywot.com,facebook.com,twitter.com,google.com
Blocked Site,facebook.com/saloneroticodebarcelona,instagram.com/saloneroticobcn,twitter.com/saloneroticobcn,saloneroticodebarcelona.com,facebook.com/saloneroticodebarcelona/?fref=ts#,animeflv.net/ver/masou-gakuen-hxh-special,anime-gx.com/forum/19-1925-1,anime-gx.com/blog/kuraibito_episodio_01/2016-10-08-1082,blog.puya.se/?p=35777,fullqurandownload.com,facebook.com/imaginebreaker20,facebook.com/sora.san212/photos/a.1597933303804434.1073741829.1566401166957648/1711485952449168/?type=3,facebook.com/sora.san212/?hc_location=ufi,facebook.com/sora.san212,facebook.com/izayoi.bran040,facebook.com/senpairikolino,weibo.com,xxxkasero.com,deviantart.com/browse/all/photography/people/nude/?offset=62,dineroen-30dias.com/flow/?campaign=1679¶meter=mscco1&key=&utp1=&utp2=&utp3=&utp4=,trackingclick.net/d0973879-c17f-44c1-b8f4-f25f0d6b2c2a?countrycode=co&siteid=107&placementid=22884&campaignid=8611&browser=chrome&city={city}&randomvar=1834738287&adtype=pageunder,notijoven.com/las-modelos-rusas-las-mas-guapas-del-mundo,facebook.com/exen-742438965835887,facebook.com/onii.sama.el.shidori,facebook.com/glynplanxoficial/?fref=ts,chrome-extension://gighmmpiobklfepjocnamgkkbiglidom/adblock-button-popup.html,vda.gtarcade.com/?q=160626a6akiuw&sid=30024,good-black4u.com/c20yofzms0zrmk5baghlr1qusjmxuamenxezdwlwbvadfmddqwekeenlqvvrqfkusjmvufpmigniaxlzqssxchasa1tvmxubrby4fhkxcha=,facebook.com/sexy-asian-y-cosplay-girls-458653980906117,facebook.com/uriko-nonomura-%e1%83%a6-%e1%85%9d-487356658066864,facebook.com/kira-akasuna-776105359144348,facebook.com/japon18.bygrayevans/?fref=ts,facebook.com/galaxhentai,facebook.com/vizardx,facebook.com/hashtag/animeh?fref=ts,pixiv.net,discordapp.com,4tube.com,8teenxxx.com,alotporn.com,beeg.com,bustnow.com,cliphunter.com,definebabes.com,deviantclip.com,drtuber.com,empflix.com,fantasti.cc,fapdu.com,freeporn.com,freudbox.com,fuq.com,fux.com,grayvee.com,hellxx.com,hustlertube.com,jugy.com,jizzhut.com,kaktuz.com,kinxxx.com,laraporn.com,leakedporn.com,lovelyclips.com,lubetube.com,mofosex.com,monstertube.com,madthumbs.com,moviefap.com,moviesand.com,orgasm.com,perfectgirls.net,pichunter.com,planetsuzy.com,porn-plus.com,porncor.com,pornrabbit.com,porntitan.com,pussy.org,tube8.com,xhamster.com,xnxx.com,xvideos.com,youjizz.com,jav.me,javfor.me,anime-gytareety.blogspot.com.co,facebook.com/glynplanxoficial,facebook.com/bassbiggeon.oficial/?fref=ts,facebook.com/livemap/?ref=bookmarks#@-5.266007882805485,-58.13964843749999,4z,pornhub.com,redtube.com,keezmovies.com,extremetube.com,adultfriender.com,youporn.com,porn.com,tub8.com,thumbzilla.com,spankwire.com,xtube.com,pornmd.com
Blocked Keyword,sin-nanatsu-no-taizai,rokudenashi-majutsu-koushi-to-kinki-kyouten,mnemosyne,zettai-junpaku-mahou-shoujo,yosuga-no-sora,yuushibu,weiss-survive,tokyo-daigaku-monogatari,teizokurei-daydream,tenjou-tenge,walkure-romanze,triage-x,sora-no-otoshimono,shinmai-maou-no-keiyakusha,shin-koihime-musou,shimoneta-to-iu-gainen-ga-sonzai-shinai-taikutsu-na-sekai,seirei-tsukai-no-blade-dance,senran-kagura,sekirei,saikin-imouto,saikin-imouto-no-yousu-ga-chotto-okashiinda-ga,seikon-no-qwaser,seikoku-no-dragonar,rescue-me!,rail-wars!,queen's-blade,punchline,princess-lover!,onii-chan-dakedo,okusama-ga-seito-kaichou,nozo-x-kimi,nozoki-ana,nana-to-kaoru,mujaki-no-rakuen,monster-musume-no-iru-nichijou,to-love-ru,momo-kyun-sword,mayo-chiki!,manyu-hiken-cho,maken-ki!,maji-de-watashi-ni-koi-shinasai,madan-no-ou-to-vanadis,lingerie-senshi-papillon-rose,lime-iro-senkitan,ladies-vs-butlers!,kono-naka-ni-hitori-imouto-ga-iru,kissxsis,kimi-ga-aruji-de-shitsuji-ga-ore-de,kiddy-girl,kenzen-robo,keijo!!!!!!!!,kangoku-gakuen,kanokon,jungle-de-ikou!,kampfer,kagaku-na-yatsura,isuca,ikkitousen,hyakka-ryouran,hundred,high-school-dxd,hantsu-x-trash,hagure-yuusha-no-estetica,grisaia-no,grenadier-hohoemi-no-senshi,goshuushou-sama-ni-nomiya-kun,gokujou,freezing,futari-ecchi,dakara-boku-wa-h-ga-dekinai,cyclops-shoujo-saipu,chu-bra!!,bikini-warriors,baby-princess,b-gata-h-kei,astarotte-no-omocha,asobi-ni-iku-yo!,asa-made-jugyou-chu,aoi-sekai-no,ane-log,amaenaideyo!!,akiba's-trip,aki-sora,aika-r-16,agent-aika,absolute-duo,1+2=paradise,11-eyes,saloneroticobcn,saloneroticodebarcelona,salón erótico de barcelona,glynplanx,glynplanx oficial,glynplanxoficial,bassbiggeon,kuraibito,masou-gakuen-hxh,masou gakuen hxh,videos +18,av idol,zukulencia,zuculencia,zukulensia,zuculensia,drop out,ahegao,anal,bakunyuu,bondage,nakadashi,orgia,paizuri,sumisas,urination,oppai,tetas,hentai,hhh,big tits,ass lover,handjob,jav,masturbation,4hr+hot spring,titty fuck,facials,squirting,slut,facesitting,creampie,slender,shaved,tits,cowgirl,other fetish,losjavsdegurren,porn,pornography,nude,blowjob,fetish,milf,sex,gone wild,gore
